{
  "openapi": "3.0.1",
  "info": {
    "title": "ScratchPay clinics search API",
    "version": "1.0.0"
  },
  "schemes": ["http", "https"],
  "servers": [
    { "url": "https://scratch-pay.onrender.com" },
    { "url": "http://localhost:5005" }
  ],
  "paths": {
    "/api/v1/clinics": {
      "get": {
        "summary": "Retrieve a list of clinics filtered by name, state, from, and to.",
        "parameters": [
          {
            "in": "query",
            "name": "name",
            "description": "The name of the clinic",
            "required": false,
            "schema": {
              "type": "string"
            }
          },
          {
            "in": "query",
            "name": "state",
            "description": "The state of the clinic",
            "required": false,
            "schema": {
              "type": "string"
            }
          },
          {
            "in": "query",
            "name": "from",
            "description": "The start time of the filter can be in format hh or hh:mm",
            "required": false,
            "schema": {
              "type": "string",
              "format": "date"
            }
          },
          {
            "in": "query",
            "name": "to",
            "description": "The end time of the filter can be hh or hh:mm",
            "required": false,
            "schema": {
              "type": "string",
              "format": "date"
            }
          }
        ],
        "responses": {
          "200": {
            "description": "A list of filtered clinics",
            "content": {
              "application/json": {
                "schema": {
                  "type": "object",
                  "properties": {
                    "status": {
                      "type": "integer"
                    },
                    "clinics": {
                      "type": "array",
                      "items": {
                        "$ref": "#/components/schemas/Clinic"
                      }
                    }
                  }
                }
              }
            }
          },
          "500": {
            "description": "An error occurred while processing the request",
            "content": {
              "application/json": {
                "schema": {
                  "$ref": "#/components/schemas/Error"
                }
              }
            }
          }
        }
      }
    }
  },

  "components": {
    "schemas": {
      "Error": {
        "type": "object",
        "properties": {
          "error": {
            "type": "object",
            "properties": {
              "status": {
                "type": "integer"
              },
              "message": {
                "type": "string"
              }
            }
          }
        }
      },
      "Clinic": {
        "type": "object",
        "properties": {
          "denatl": {
            "type": "object",
            "properties": {
              "name": {
                "type": "string",
                "description": "The name of the clinic"
              },
              "stateName": {
                "type": "string",
                "description": "The state where the clinic is located"
              },
              "availability": {
                "type": "object",
                "properties": {
                  "from": {
                    "type": "string",
                    "description": "The opening time for the clinic can be hh:mm or hh"
                  },
                  "to": {
                    "type": "string",
                    "description": "The closing time for the clinic can be hh:mm or hh"
                  }
                }
              }
            }
          },
          "vet": {
            "type": "object",
            "properties": {
              "clinicName": {
                "type": "string",
                "description": "The name of the clinic"
              },
              "stateCode": {
                "type": "string",
                "description": "The state where the clinic is located"
              },
              "opening": {
                "type": "object",
                "properties": {
                  "from": {
                    "type": "string",
                    "description": "The opening time for the clinic can be hh:mm or hh"
                  },
                  "to": {
                    "type": "string",
                    "description": "The closing time for the clinic can be hh:mm or hh"
                  }
                }
              }
            }
          }
        }
      }
    }
  }
}
